<svg width="14" height="14" viewBox="0 0 14 14" fill="none" xmlns="http://www.w3.org/2000/svg">
<path d="M11.4963 6.2484L6.49014 1.22707C6.23066 0.935813 6.24306 0.492259 6.51841 0.216022C6.79376 -0.0602144 7.23637 -0.0731408 7.5273 0.186558L13.7853 6.46585C14.0716 6.75336 14.0716 7.21885 13.7853 7.50636L7.5273 13.7845C7.34182 13.9704 7.07148 14.0429 6.81811 13.9749C6.56474 13.9069 6.36684 13.7086 6.29895 13.4547C6.23106 13.2008 6.3035 12.9298 6.48898 12.744L11.4963 7.72148H0.733831C0.328547 7.72148 0 7.39224 0 6.98611C0 6.57997 0.328547 6.25074 0.733831 6.25074H11.4963V6.2484Z" fill="#16161C"/>
</svg>
